<svg width="340" height="20" viewBox="0 0 340 20" fill="none" xmlns="http://www.w3.org/2000/svg">
<path d="M6 10L7.75833 12.8133C8.1219 13.395 8.94987 13.4463 9.38244 12.9139L15 6" stroke="#56CCF2" stroke-width="2"/>
<rect x="0.5" y="0.5" width="19" height="19" rx="9.5" stroke="#56CCF2"/>
<path d="M20 10L80 10" stroke="#56CCF2"/>
<path d="M86 10L87.7583 12.8133C88.1219 13.395 88.9499 13.4463 89.3824 12.9139L95 6" stroke="#56CCF2" stroke-width="2"/>
<rect x="80.5" y="0.5" width="19" height="19" rx="9.5" stroke="#56CCF2"/>
<path d="M100 10L160 10" stroke="#56CCF2"/>
<path d="M100 10L130 10" stroke="#56CCF2"/>
<path d="M166 10L167.758 12.8133C168.122 13.395 168.95 13.4463 169.382 12.9139L175 6" stroke="#56CCF2" stroke-width="2"/>
<rect x="160.5" y="0.5" width="19" height="19" rx="9.5" stroke="#56CCF2"/>
<path d="M180 10L240 10" stroke="#4F4F4F"/>
<path d="M180 10L210 10" stroke="#56CCF2"/>
<path d="M252.364 11.4521H253.602V12.7852H252.364V15H250.703V12.7852H246.403L246.355 11.7734L250.648 5.04688H252.364V11.4521ZM248.099 11.4521H250.703V7.2959L250.58 7.51465L248.099 11.4521Z" fill="#4F4F4F"/>
<rect x="240.5" y="0.5" width="19" height="19" rx="9.5" stroke="#4F4F4F"/>
<path d="M260 10L320 10" stroke="#4F4F4F"/>
<path d="M327.189 10.0645L327.729 5.04688H333.075V6.48242H329.11L328.837 8.86133C329.297 8.59701 329.817 8.46484 330.396 8.46484C331.343 8.46484 332.079 8.7679 332.604 9.37402C333.132 9.98014 333.396 10.7959 333.396 11.8213C333.396 12.833 333.105 13.6396 332.521 14.2412C331.938 14.8382 331.138 15.1367 330.122 15.1367C329.211 15.1367 328.454 14.8792 327.853 14.3643C327.256 13.8447 326.932 13.1611 326.882 12.3135H328.488C328.552 12.7965 328.725 13.168 329.008 13.4277C329.29 13.6829 329.66 13.8105 330.115 13.8105C330.626 13.8105 331.022 13.6283 331.305 13.2637C331.592 12.8991 331.735 12.4023 331.735 11.7734C331.735 11.1673 331.578 10.6888 331.264 10.3379C330.949 9.98242 330.516 9.80469 329.965 9.80469C329.664 9.80469 329.409 9.8457 329.199 9.92773C328.99 10.0052 328.762 10.1602 328.516 10.3926L327.189 10.0645Z" fill="#4F4F4F"/>
<rect x="320.5" y="0.5" width="19" height="19" rx="9.5" stroke="#4F4F4F"/>
</svg>
